<?xml version="1.0" encoding="utf-8"?>
<!-- Generator: Adobe Illustrator 23.1.0, SVG Export Plug-In . SVG Version: 6.00 Build 0)  -->
<svg version="1.1" id="Eyes" xmlns="http://www.w3.org/2000/svg" xmlns:xlink="http://www.w3.org/1999/xlink" x="0px" y="0px"
	 viewBox="0 0 1000 1000" style="enable-background:new 0 0 1000 1000;" xml:space="preserve">
<style type="text/css">
	.st0{fill:#FFFFFF;}
	.st1{fill:url(#SVGID_1_);stroke:#000000;stroke-miterlimit:10;}
	.st2{stroke:#000000;stroke-miterlimit:10;}
	.st3{fill:url(#SVGID_2_);stroke:#000000;stroke-miterlimit:10;}
</style>
<g id="Eyes_open">
	<ellipse id="Left_eye" class="st0" cx="580" cy="520" rx="60" ry="90"/>
	<g id="Left_Iris">
		<radialGradient id="SVGID_1_" cx="580" cy="520" r="47.8033" gradientUnits="userSpaceOnUse">
			<stop  offset="0" style="stop-color:#A67C52"/>
			<stop  offset="1" style="stop-color:#42210B"/>
		</radialGradient>
		<ellipse class="st1" cx="580" cy="520" rx="37.5" ry="56.3"/>
		<ellipse class="st2" cx="580" cy="520" rx="22.5" ry="33.8"/>
	</g>
	<ellipse id="Right_eye" class="st0" cx="390" cy="520" rx="60" ry="90"/>
	<g id="Right_Iris">
		<radialGradient id="SVGID_2_" cx="390" cy="520" r="47.8033" gradientUnits="userSpaceOnUse">
			<stop  offset="0" style="stop-color:#A67C52"/>
			<stop  offset="1" style="stop-color:#42210B"/>
		</radialGradient>
		<ellipse class="st3" cx="390" cy="520" rx="37.5" ry="56.3"/>
		<ellipse class="st2" cx="390" cy="520" rx="22.5" ry="33.8"/>
	</g>
</g>
</svg>
