<?xml version="1.0" encoding="utf-8"?>
<!-- Generator: Adobe Illustrator 23.1.0, SVG Export Plug-In . SVG Version: 6.00 Build 0)  -->
<svg version="1.1" id="Eyes" xmlns="http://www.w3.org/2000/svg" xmlns:xlink="http://www.w3.org/1999/xlink" x="0px" y="0px"
	 viewBox="0 0 1000 1000" style="enable-background:new 0 0 1000 1000;" xml:space="preserve">
<style type="text/css">
	.st0{fill:none;stroke:#000000;stroke-width:20;stroke-miterlimit:10;}
</style>
<g id="X_X">
	<g id="Right_2_">
		<line class="st0" x1="451.2" y1="488.7" x2="328.8" y2="561.3"/>
		<line class="st0" x1="328.8" y1="488.7" x2="451.2" y2="561.3"/>
	</g>
	<g id="Left_2_">
		<line class="st0" x1="641.2" y1="488.7" x2="518.8" y2="561.3"/>
		<line class="st0" x1="518.8" y1="488.7" x2="641.2" y2="561.3"/>
	</g>
</g>
</svg>
