<?xml version="1.0" encoding="utf-8"?>
<!-- Generator: Adobe Illustrator 23.1.0, SVG Export Plug-In . SVG Version: 6.00 Build 0)  -->
<svg version="1.1" id="Mouths" xmlns="http://www.w3.org/2000/svg" xmlns:xlink="http://www.w3.org/1999/xlink" x="0px" y="0px"
	 viewBox="0 0 1000 1000" style="enable-background:new 0 0 1000 1000;" xml:space="preserve">
<style type="text/css">
	.st0{fill:url(#Tongue_1_);}
	.st1{fill:none;stroke:#000000;stroke-width:20;stroke-miterlimit:10;}
</style>
<g id="P_frown">
	
		<radialGradient id="Tongue_1_" cx="484.3447" cy="627.5759" r="40.5878" gradientTransform="matrix(1.1003 0 0 3 -44.1845 -1249.0271)" gradientUnits="userSpaceOnUse">
		<stop  offset="0" style="stop-color:#5F2332"/>
		<stop  offset="5.669323e-02" style="stop-color:#6A2738"/>
		<stop  offset="0.308" style="stop-color:#973750"/>
		<stop  offset="0.5022" style="stop-color:#B4405F"/>
		<stop  offset="0.6145" style="stop-color:#BE4465"/>
	</radialGradient>
	<path id="Tongue_2_" class="st0" d="M537.9,642.6c0,41.3-21.4,74.9-47.9,74.9c-26.4,0-47.9-33.5-47.9-74.9"/>
	<path id="Frown_1_" class="st1" d="M613.1,700.6c-3.8-5.7-45.8-66.3-122.5-68c-54.3-1.3-105.5,27.5-133.8,74.8"/>
</g>
</svg>
