<?xml version="1.0" encoding="utf-8"?>
<!-- Generator: Adobe Illustrator 22.1.0, SVG Export Plug-In . SVG Version: 6.00 Build 0)  -->
<svg version="1.1" xmlns="http://www.w3.org/2000/svg" xmlns:xlink="http://www.w3.org/1999/xlink" x="0px" y="0px"
	 viewBox="0 0 1000 1000" style="enable-background:new 0 0 1000 1000;" xml:space="preserve">
<g fill="currentcolor" id="Content">
	<path d="M799.9,263.8l-63.6-63.6c-11.4-11.4-30-11.7-41.7-0.7l0,0l-0.7,0.7l-63.6,63.6L253,640.9L200,800l159.1-53l-20-20
		l-76.2,25.4l-15.2-15.2l25.4-76.2l86.1,86.1l377.1-377.1l63.6-63.6c0,0,0,0,0,0l0.7-0.7l0,0C811.5,293.8,811.3,275.2,799.9,263.8z
		 M726.2,337.4l-63.6-63.6l21.2-21.2l63.6,63.6L726.2,337.4z"/>
</g>
</svg>
