<?xml version="1.0" encoding="utf-8"?>
<!-- Generator: Adobe Illustrator 22.1.0, SVG Export Plug-In . SVG Version: 6.00 Build 0)  -->
<svg version="1.1" xmlns="http://www.w3.org/2000/svg" xmlns:xlink="http://www.w3.org/1999/xlink" x="0px" y="0px"
	 viewBox="0 0 1000 1000" style="enable-background:new 0 0 1000 1000;" xml:space="preserve">
<g fill="currentcolor" id="Content">
	<path d="M500,200c-165.7,0-300,134.3-300,300c0,132.5,86,245,205.2,284.7c15,2.8,20.5-6.5,20.5-14.5
		c0-7.1-0.3-26-0.4-51C341.8,737.3,324.2,679,324.2,679c-13.6-34.7-33.3-43.9-33.3-43.9c-27.2-18.6,2.1-18.2,2.1-18.2
		c30.1,2.1,46,30.9,46,30.9c26.8,45.8,70.2,32.6,87.3,24.9c2.7-19.4,10.5-32.6,19-40.1c-66.6-7.6-136.7-33.3-136.7-148.3
		c0-32.8,11.7-59.5,30.9-80.5c-3.1-7.6-13.4-38.1,2.9-79.4c0,0,25.2-8.1,82.5,30.8c23.9-6.7,49.6-10,75.1-10.1
		c25.5,0.1,51.1,3.4,75.1,10.1c57.3-38.8,82.4-30.8,82.4-30.8c16.4,41.3,6.1,71.8,3,79.4c19.2,21,30.8,47.8,30.8,80.5
		c0,115.2-70.1,140.6-137,148c10.8,9.3,20.4,27.6,20.4,55.6c0,40.1-0.4,72.5-0.4,82.3c0,8,5.4,17.4,20.6,14.4
		C714.1,744.9,800,632.5,800,500C800,334.3,665.7,200,500,200z"/>
</g>
</svg>
